%YAML 1.1
%TAG !u! tag:unity3d.com,2011:
--- !u!162 &1
EditorUserSettings:
  m_ObjectHideFlags: 0
  serializedVersion: 4
  m_ConfigSettings:
    RecentlyUsedScenePath-0:
      value: 224247031146466f02034b3150175a02041611246c1c293f213a5216fae13928eee276cde62e3e730d36db7c21260032e2060c4ba4451f05181ae4
      flags: 0
    RecentlyUsedScenePath-1:
      value: 224247031146466f02034b3150175a02041611246c1c293f213a5216fae13928eee276cde62e3e730d36db7c21260032e2060c4ba5451f05181ae4
      flags: 0
    RecentlyUsedScenePath-2:
      value: 2242470311464678210f163b2236511e130539293821293e0c27143ed2e13733add435ece93f2c730a01ea32016e5071a2352a07f71113261e18f83133fe031a128b0dcb13dc06
      flags: 0
    RecentlyUsedScenePath-3:
      value: 2242470311464678210f163b2236511e130539293821293e0c27143ed2e13733add435ece93f2c730a01ea32016e5771a3352a07f711133c1002f13132f3191e138332d017d85109c51008d7
      flags: 0
    RecentlyUsedScenePath-4:
      value: 224247031146467a0107092c33315a1102020a2f1c29253b62083e0cc6e53937d1e433e7e2742a323016f6
      flags: 0
    RecentlyUsedScenePath-5:
      value: 224247031146467a0107092c33315a1102020a2f1c29253b62083e0cceef2328edeb2fcde23730722c0ce6281d
      flags: 0
    RecentlyUsedScenePath-6:
      value: 22424703114646680e0b0227036c6c1817131d383f66333e243d04
      flags: 0
    RecentlyUsedScenePath-7:
<<<<<<< HEAD
      value: 22424703114646680e0b0227036c4d1518131d38623d28393930
=======
      value: 22424703114646680e0b0227036c6c111b07142f1f2b233e2867083debf42d
>>>>>>> Main
      flags: 0
    RecentlyUsedScenePath-8:
      value: 22424703114646680e0b0227036c6c111b07142f1f2b233e2867083debf42d
      flags: 0
    RecentlyUsedScenePath-9:
<<<<<<< HEAD
      value: 22424703114646680e0b0227036c4c1313191d78623d28393930
      flags: 0
    UnityEditor.ShaderGraph.Blackboard:
      value: 18135939215a0a5004000b0e15254b524c030a3f2964643d120d1230e9e93a3fd6e826abbd2e2d293c4ead313b08042de6030a0afa240c0d020be94c4ba75e435d8715fa32c70d15d11612dacc11fee5d3c5d1fe9ab1bf968e93e2ffcbc3e7e2f0b3ffe0e8b0be9af8ffaeffff8e85dd8390e3949c8899daa7
      flags: 0
    UnityEditor.ShaderGraph.FloatingWindowsLayout2:
      value: 181344140043005e1a220d3b1f364b524c0c5a27130c293326201334cee5322ca0bd30e8eb293a707b0fd0180b3d0a36fc0d3d04e649500d1002ee0b5dbd1d2c27c00ad113cb1e10e41f1addc80993b987839aba94a9eae7f6d0b2fbeeffe0ecf4fd8afdacbbf9d4e8f5afe9fd8c978883c788f7c5dccc85e0c993cbfc8983818c98d59a9b9e9a8188dff5c3f28dbab9
      flags: 0
    UnityEditor.ShaderGraph.InspectorWindow:
      value: 18135939215a0a5004000b0e15254b524c1119263f2d6a722016393ce1eb3d36e5d339f9a5602b2e2c07a37e0901373ae01e0008f707250d171df81a53a5405d41895ac825e0100ec20313c0d91cddccd3d0c7efcca9bd88908fecb0f9cfddf1eff4e7a1b1eae482f0fcaee1e1928b86d888ed90999f8797a7cf
      flags: 0
    UnityEditor.ShaderGraph.ToggleSettings:
      value: 18135d1527590858060c032302276919051e1a26296a7c362c250e36aea23d2bd2f533ffee3f280a3011e63e083b4365e6181c0eba4903183800ee1e14fc041c03f311d613ca1319894308dcd8189da1d6d9d8e5cadbf5d7c8d6a4f7e6b2b4baa9dfaaf5aff6bedd
=======
      value: 22424703114646680e0b0227036c4d1518131d38623d28393930
>>>>>>> Main
      flags: 0
    vcSharedLogLevel:
      value: 0d5e400f0650
      flags: 0
  m_VCAutomaticAdd: 1
  m_VCDebugCom: 0
  m_VCDebugCmd: 0
  m_VCDebugOut: 0
  m_SemanticMergeMode: 2
  m_VCShowFailedCheckout: 1
  m_VCOverwriteFailedCheckoutAssets: 1
  m_VCProjectOverlayIcons: 1
  m_VCHierarchyOverlayIcons: 1
  m_VCOtherOverlayIcons: 1
  m_VCAllowAsyncUpdate: 1
